\relax 
\providecommand*\new@tpo@label[2]{}
\catcode `"\active 
\@input{Sondernamen.aux}
\@input{kapitel/titel.aux}
\select@language{ngerman}
\@writefile{toc}{\select@language{ngerman}}
\@writefile{lof}{\select@language{ngerman}}
\@writefile{lot}{\select@language{ngerman}}
\select@language{ngerman}
\@writefile{toc}{\select@language{ngerman}}
\@writefile{lof}{\select@language{ngerman}}
\@writefile{lot}{\select@language{ngerman}}
\@writefile{toc}{\contentsline {chapter}{\nonumberline Abbildungsverzeichnis}{iii}}
\@writefile{toc}{\contentsline {chapter}{\nonumberline Tabellenverzeichnis}{iv}}
\@input{kapitel/abkuerzungen.aux}
\@input{kapitel/einleitung.aux}
\@input{kapitel/modell.aux}
\@input{kapitel/daten.aux}
\@input{kapitel/evaluation.aux}
\@input{kapitel/fazit.aux}
\bibstyle{alphadin}
\bibdata{literatur/da}
\bibcite{Ariyo.2014}{AAA14}
\bibcite{Avellaneda.2008}{AL08}
\bibcite{Atsalakis.2013}{AV13}
\bibcite{Bernard.1990}{BT90}
\bibcite{Connor.1994}{CMA94}
\bibcite{Good.2016}{GBC16}
\bibcite{Huang.2004}{HM04}
\bibcite{HechtNielsen.1989}{HN89}
\bibcite{Huck.2010}{Huc10}
\bibcite{Krauss.2017}{KDH17}
\select@language{ngerman}
\@writefile{toc}{\select@language{ngerman}}
\@writefile{lof}{\select@language{ngerman}}
\@writefile{lot}{\select@language{ngerman}}
\@writefile{toc}{\contentsline {chapter}{\nonumberline Literaturverzeichnis}{vi}}
\@writefile{lof}{\addvspace {10\p@ }}
\@writefile{lot}{\addvspace {10\p@ }}
\@writefile{lol}{\addvspace {10\p@ }}
\bibcite{Kim.2003}{Kim03}
\bibcite{Leung.2000}{LDC00}
\bibcite{Lawrence.2000}{LG00}
\bibcite{Lippmann.1987}{Lip87}
\bibcite{Miller.1993}{Moe93}
\bibcite{Murphy.2000}{Mur00}
\bibcite{Mao.2006}{MZZC06}
\bibcite{Ou.1989}{OP89}
\bibcite{Orr.1997}{Orr97}
\bibcite{Qin.2013}{QWLG13}
\bibcite{Scherer.1997}{Sch97}
\bibcite{Setiono.1997}{SL97}
\bibcite{Shad2002}{ST02}
\bibcite{Zhang1998}{ZEY98}
\bibcite{Zhang.2003}{Zha03}
\bibcite{Zhang.2004}{Zha04}
\@writefile{toc}{\contentsline {part}{Anhang}{viii}}
\@input{Anhang.aux}
\@input{kapitel/erklaerung.aux}
\global\@namedef{scr@dte@chapter@lastmaxnumwidth}{11.33308pt}
\global\@namedef{scr@dte@section@lastmaxnumwidth}{18.37163pt}
