\relax 
\citation{Murphy.2000}
\citation{Leung.2000}
\@writefile{toc}{\contentsline {chapter}{\numberline {3}Datenaufbereitung und Parameter der Neuronalen Netze}{10}}
\@writefile{lof}{\addvspace {10\p@ }}
\@writefile{lot}{\addvspace {10\p@ }}
\@writefile{lol}{\addvspace {10\p@ }}
\newlabel{chap:daten}{{3}{10}}
\@writefile{toc}{\contentsline {section}{\numberline {3.1}Datenaufbereitung}{10}}
\newlabel{sec:datenaufbereitung}{{3.1}{10}}
\@writefile{lot}{\contentsline {table}{\numberline {\relax 3.1}{\ignorespaces Rohdaten BASF}}{10}}
\newlabel{tab:rohdaten}{{\relax 3.1}{10}}
\citation{Zhang1998}
\citation{Zhang1998}
\citation{Zhang1998}
\citation{Lippmann.1987}
\@writefile{toc}{\contentsline {section}{\numberline {3.2}Parameter des neuronalen Netze}{11}}
\@writefile{lot}{\contentsline {table}{\numberline {\relax 3.2}{\ignorespaces Ausschnitt Eingabedaten neuronales Netz}}{11}}
\newlabel{tab:inputdata}{{\relax 3.2}{11}}
\newlabel{kap:ffn-parameter}{{3.2}{11}}
\citation{Orr.1997}
\citation{Miller.1993}
\@setckpt{kapitel/daten}{
\setcounter{page}{13}
\setcounter{equation}{0}
\setcounter{enumi}{0}
\setcounter{enumii}{0}
\setcounter{enumiii}{0}
\setcounter{enumiv}{0}
\setcounter{footnote}{0}
\setcounter{mpfootnote}{0}
\setcounter{part}{0}
\setcounter{chapter}{3}
\setcounter{section}{2}
\setcounter{subsection}{0}
\setcounter{subsubsection}{0}
\setcounter{paragraph}{0}
\setcounter{subparagraph}{0}
\setcounter{figure}{0}
\setcounter{table}{2}
\setcounter{ContinuedFloat}{0}
\setcounter{KVtest}{0}
\setcounter{subfigure}{0}
\setcounter{subfigure@save}{0}
\setcounter{lofdepth}{1}
\setcounter{subtable}{0}
\setcounter{subtable@save}{0}
\setcounter{lotdepth}{1}
\setcounter{float@type}{8}
\setcounter{lstnumber}{1}
\setcounter{parentequation}{0}
\setcounter{lstlisting}{0}
}
