\relax 
\citation{Avellaneda.2008}
\citation{Huck.2010}
\citation{Ariyo.2014}
\citation{Atsalakis.2013}
\citation{Ariyo.2014}
\citation{Kim.2003}
\citation{Qin.2013}
\citation{Krauss.2017}
\@writefile{toc}{\contentsline {chapter}{\numberline {1}Einleitung}{1}}
\@writefile{lof}{\addvspace {10\p@ }}
\@writefile{lot}{\addvspace {10\p@ }}
\@writefile{lol}{\addvspace {10\p@ }}
\newlabel{chap:einleitung}{{1}{1}}
\@writefile{toc}{\contentsline {section}{\numberline {1.1}Ziel und Aufbau der Arbeit}{1}}
\newlabel{sec:ziel-der-arbeit}{{1.1}{1}}
\@setckpt{kapitel/einleitung}{
\setcounter{page}{3}
\setcounter{equation}{0}
\setcounter{enumi}{0}
\setcounter{enumii}{0}
\setcounter{enumiii}{0}
\setcounter{enumiv}{0}
\setcounter{footnote}{0}
\setcounter{mpfootnote}{0}
\setcounter{part}{0}
\setcounter{chapter}{1}
\setcounter{section}{1}
\setcounter{subsection}{0}
\setcounter{subsubsection}{0}
\setcounter{paragraph}{0}
\setcounter{subparagraph}{0}
\setcounter{figure}{0}
\setcounter{table}{0}
\setcounter{ContinuedFloat}{0}
\setcounter{KVtest}{0}
\setcounter{subfigure}{0}
\setcounter{subfigure@save}{0}
\setcounter{lofdepth}{1}
\setcounter{subtable}{0}
\setcounter{subtable@save}{0}
\setcounter{lotdepth}{1}
\setcounter{float@type}{8}
\setcounter{lstnumber}{1}
\setcounter{parentequation}{0}
\setcounter{lstlisting}{0}
}
