\relax 
\@writefile{toc}{\contentsline {chapter}{\numberline {4}Evaluation des Modells}{13}}
\@writefile{lof}{\addvspace {10\p@ }}
\@writefile{lot}{\addvspace {10\p@ }}
\@writefile{lol}{\addvspace {10\p@ }}
\newlabel{chap:evaluation}{{4}{13}}
\@writefile{lof}{\contentsline {figure}{\numberline {\relax 4.1}{\ignorespaces Ergebnisse Gauss'schen Normalverteilung}}{14}}
\newlabel{abb:result-gauss}{{\relax 4.1}{14}}
\citation{Bernard.1990}
\citation{Ou.1989}
\@writefile{lof}{\contentsline {figure}{\numberline {\relax 4.2}{\ignorespaces Ergebnisse drei versteckte Schichten}}{15}}
\newlabel{abb:result-3Layer}{{\relax 4.2}{15}}
\@writefile{lof}{\contentsline {figure}{\numberline {\relax 4.3}{\ignorespaces Ergebnisse zwei versteckte Schichten}}{15}}
\newlabel{abb:result-2Layer}{{\relax 4.3}{15}}
\citation{Setiono.1997}
\citation{Mao.2006}
\citation{Huang.2004}
\citation{Kim.2003}
\citation{Connor.1994}
\@setckpt{kapitel/evaluation}{
\setcounter{page}{17}
\setcounter{equation}{0}
\setcounter{enumi}{0}
\setcounter{enumii}{0}
\setcounter{enumiii}{0}
\setcounter{enumiv}{0}
\setcounter{footnote}{0}
\setcounter{mpfootnote}{0}
\setcounter{part}{0}
\setcounter{chapter}{4}
\setcounter{section}{0}
\setcounter{subsection}{0}
\setcounter{subsubsection}{0}
\setcounter{paragraph}{0}
\setcounter{subparagraph}{0}
\setcounter{figure}{3}
\setcounter{table}{0}
\setcounter{ContinuedFloat}{0}
\setcounter{KVtest}{0}
\setcounter{subfigure}{0}
\setcounter{subfigure@save}{0}
\setcounter{lofdepth}{1}
\setcounter{subtable}{0}
\setcounter{subtable@save}{0}
\setcounter{lotdepth}{1}
\setcounter{float@type}{8}
\setcounter{lstnumber}{1}
\setcounter{parentequation}{0}
\setcounter{lstlisting}{0}
}
