\relax 
\citation{Zhang1998}
\citation{Krauss.2017}
\citation{Scherer.1997}
\citation{Scherer.1997}
\citation{Shad2002}
\citation{Scherer.1997}
\@writefile{toc}{\contentsline {chapter}{\numberline {2}Neuronale Netze und deren Bestandteile}{3}}
\@writefile{lof}{\addvspace {10\p@ }}
\@writefile{lot}{\addvspace {10\p@ }}
\@writefile{lol}{\addvspace {10\p@ }}
\newlabel{chap:GrundlagenNN}{{2}{3}}
\@writefile{toc}{\contentsline {section}{\numberline {2.1}Aufbau eines Neurons}{3}}
\newlabel{sec:aufbau-neuron}{{2.1}{3}}
\@writefile{lof}{\contentsline {figure}{\numberline {\relax 2.1}{\ignorespaces Schematischer Aufbau eines Neurons}}{3}}
\providecommand*\caption@xref[2]{\@setref\relax\@undefined{#1}}
\newlabel{abb:aufbau-neuron}{{\relax 2.1}{3}}
\citation{Zhang1998}
\citation{Good.2016}
\citation{Good.2016}
\citation{Good.2016}
\citation{HechtNielsen.1989}
\citation{Good.2016}
\citation{Good.2016}
\@writefile{toc}{\contentsline {section}{\numberline {2.2}Feedforward Netz}{5}}
\newlabel{sec:ffn}{{2.2}{5}}
\@writefile{lof}{\contentsline {figure}{\numberline {\relax 2.2}{\ignorespaces Einfaches Feedforward Netz zur Demonstration von Backpropagation}}{6}}
\newlabel{abb:example-backprop}{{\relax 2.2}{6}}
\citation{Good.2016}
\citation{Zhang.2004}
\citation{Zhang1998}
\citation{Lawrence.2000}
\citation{Zhang.2003}
\@writefile{lof}{\contentsline {figure}{\numberline {\relax 2.3}{\ignorespaces Overfitting: Fehlerrate Trainingsdaten und Fehlerrate Testdaten}}{8}}
\newlabel{abb:overfitting}{{\relax 2.3}{8}}
\@setckpt{kapitel/modell}{
\setcounter{page}{10}
\setcounter{equation}{0}
\setcounter{enumi}{0}
\setcounter{enumii}{0}
\setcounter{enumiii}{0}
\setcounter{enumiv}{0}
\setcounter{footnote}{0}
\setcounter{mpfootnote}{0}
\setcounter{part}{0}
\setcounter{chapter}{2}
\setcounter{section}{2}
\setcounter{subsection}{0}
\setcounter{subsubsection}{0}
\setcounter{paragraph}{0}
\setcounter{subparagraph}{0}
\setcounter{figure}{3}
\setcounter{table}{0}
\setcounter{ContinuedFloat}{0}
\setcounter{KVtest}{0}
\setcounter{subfigure}{0}
\setcounter{subfigure@save}{0}
\setcounter{lofdepth}{1}
\setcounter{subtable}{0}
\setcounter{subtable@save}{0}
\setcounter{lotdepth}{1}
\setcounter{float@type}{8}
\setcounter{lstnumber}{1}
\setcounter{parentequation}{0}
\setcounter{lstlisting}{0}
}
